<svg width="16px" height="16px" viewBox="0 0 16 16" version="1.1" xmlns="http://www.w3.org/2000/svg" xmlns:xlink="http://www.w3.org/1999/xlink">
    <g id="Page-1" stroke="none" stroke-width="1" fill="none" fill-rule="evenodd" stroke-linecap="round">
        <g id="2.2" transform="translate(-1143.000000, -62.000000)" stroke="#6743DF" stroke-width="2">
            <g id="icon-close-copy" transform="translate(1143.000000, 62.000000)">
                <g id="CLOSE-Copy">
                    <g id="cross" transform="translate(1.333333, 1.333333)">
                        <path d="M0,0 L13.1993266,13.1993266" id="Line"></path>
                        <path d="M13.1993266,0 L0,13.1993266" id="Line"></path>
                    </g>
                </g>
            </g>
        </g>
    </g>
</svg>