<svg width="27" height="27" xmlns="http://www.w3.org/2000/svg">
    <defs>
        <rect id="a" width="27" height="27" rx="5.76"/>
        <rect id="b" width="27" height="27" rx="5.76"/>
    </defs>
    <g fill="none" fill-rule="evenodd">
        <g>
            <rect stroke="#C9CACC" stroke-width=".5" x=".25" y=".25" width="26.5" height="26.5" rx="5.76"/>
        </g>
        <path d="M11.02 12.34h1.51a.39.39 0 0 0 0-.77h-3.8a.39.39 0 0 0 0 .77h1.51l.24-.48a.1.1 0 0 1 .1-.06h.1a.1.1 0 0 1 .1.06l.24.48zm-.68 4.86l-4-2.34a.58.58 0 0 1-.29-.5V9.68c0-.2.11-.4.29-.5l4-2.34c.18-.1.4-.1.58 0l4 2.34c.18.1.29.3.29.5v4.68c0 .2-.11.4-.29.5l-4 2.34c-.18.1-.4.1-.58 0zm-.6-7.95a.39.39 0 1 0 0 .77h1.78a.39.39 0 0 0 0-.77H9.74zm0 4.64a.39.39 0 0 0 0 .77h1.78a.39.39 0 1 0 0-.77H9.74zm-.5-3.48a.39.39 0 0 0 0 .77h2.78a.39.39 0 0 0 0-.77H9.24zm0 2.32a.39.39 0 0 0 0 .77h2.78a.39.39 0 1 0 0-.77H9.24zm1.27-4.64a.39.39 0 1 0 0 .78h.24a.39.39 0 0 0 0-.78h-.24zm0 6.95a.39.39 0 1 0 0 .78h.24a.39.39 0 0 0 0-.78h-.24zm10.3 1.55c0 .82.35 1.5.9 1.97a2.5 2.5 0 0 0-.9-.17c-.42 0-.8.07-1.17.28l-5.75 3.39c-.44.26-.99.26-1.43 0l-6.2-3.66c-.45-.25-.72-.73-.72-1.24v-.93l1.53.9 6.1 3.56 6.1-3.6V9.9l-2.4-1.42-5.22-3.06.8-.48c.45-.26 1-.26 1.44 0l6.2 3.66c.44.25.71.73.71 1.24v6.74z"
              fill="#676668" opacity=".8"/>
    </g>
</svg>
