<?xml version="1.0" encoding="UTF-8"?>
<svg width="16px" height="16px" viewBox="0 0 16 16" version="1.1" xmlns="http://www.w3.org/2000/svg" xmlns:xlink="http://www.w3.org/1999/xlink">
    <!-- Generator: Sketch 51.2 (57519) - http://www.bohemiancoding.com/sketch -->
    <title>icons/dashboard/16px/search</title>
    <desc>Created with Sketch.</desc>
    <defs></defs>
    <g id="icons/dashboard/16px/search" stroke="none" stroke-width="1" fill="none" fill-rule="evenodd">
        <g fill="#AEB6DC" fill-rule="nonzero" id="Combined-Shape">
            <path d="M15.2660319,14.0701089 C15.3034284,14.1074743 15.3336699,14.1492878 15.3567564,14.1938473 C15.5777733,14.5204713 15.5425374,14.9669845 15.2544531,15.2548294 C14.9329141,15.576101 14.4137539,15.582426 14.0751072,15.2599366 L11.1940041,12.370761 C8.52171127,14.4414735 4.67532802,14.1762421 2.31568855,11.6849608 C-0.153868432,9.07762979 -0.0973767888,4.97969257 2.44310792,2.44132013 C4.98336779,-0.0968276614 9.08401087,-0.153262644 11.6932644,2.31400736 C14.1868354,4.67188983 14.4523136,8.51574967 12.3796374,11.1861142 L15.2660319,14.0701089 Z M14.5092113,14.7328838 C14.4877195,14.6667324 14.4994374,14.5955915 14.5476404,14.5474286 C14.609843,14.4852777 14.7101384,14.4840558 14.773832,14.544666 L14.4519009,14.2218083 C14.3766582,14.3865813 14.395431,14.584063 14.5092113,14.7328838 Z M11.3307313,10.883228 C13.3658227,8.61246254 13.2219685,5.13580057 11.0062031,3.04060683 C8.79020708,0.94519507 5.30730685,0.993128385 3.14992055,3.14872093 C0.992759085,5.30408885 0.944795582,8.78338964 3.04171714,10.9972963 C5.13885693,13.2114333 8.61911347,13.3551968 10.8920379,11.3215565 C10.9813948,11.2416067 11.0919298,11.1994953 11.2035683,11.1946509 C11.2085056,11.0830167 11.2507089,10.9725174 11.3307313,10.883228 Z M2.11426567,7.14792507 C2.11208821,9.17618443 3.33640656,11.0034884 5.21306039,11.7739476 C7.08985772,12.5444657 9.24663204,12.1050597 10.6725038,10.6610059 C12.2661422,9.0553351 12.582778,6.58094454 11.4447754,4.62636201 C10.3066611,2.67158746 7.99693097,1.723329 5.8118901,2.3139262 C3.62697352,2.90448981 2.11086712,4.88665648 2.11426567,7.14792507 Z M5.55096229,1.34856789 C8.17231931,0.640038289 10.9433557,1.77768576 12.3089718,4.12320721 C13.6746996,6.46892069 13.2946857,9.43858831 11.3831708,11.3645332 C9.67317692,13.096335 7.08526904,13.6235772 4.83327201,12.699021 C2.58133028,11.7744875 1.11191193,9.58158516 1.11426586,7.14878368 C1.11047619,4.43530893 2.92968845,2.057075 5.55096229,1.34856789 Z M14.9126256,14.4238093 L14.9068007,14.4296294 C15.0332686,14.5623104 15.0307149,14.7715686 14.9010467,14.901129 C14.7713786,15.0306894 14.5619461,15.0332409 14.4291548,14.9068782 L11.2254327,11.6941795 C8.75083679,13.9082602 4.96194211,13.7517473 2.67870284,11.3411285 C0.395463575,8.93050971 0.447691148,5.14189071 2.79651423,2.79502053 C5.14533732,0.448150362 8.93710897,0.395966213 11.3497337,2.6773071 C13.7623585,4.95864798 13.9190016,8.74439241 11.7030785,11.2169308 L14.9126256,14.4238093 Z M1.61426623,7.14867654 C1.61187035,9.37869119 2.95876902,11.3889472 5.0231662,12.2364843 C7.08756338,13.0840214 9.45990448,12.6006973 11.0273844,11.0132271 C12.780414,9.2469617 13.1287388,6.52493261 11.8768736,4.37478461 C10.6250084,2.22463661 8.08462514,1.18168364 5.68142619,1.83124705 C3.27822725,2.48081045 1.61052767,4.66117095 1.61426623,7.14867654 Z"></path>
        </g>
    </g>
</svg>