<svg width="19px" height="22px" viewBox="0 0 19 22" version="1.1" xmlns="http://www.w3.org/2000/svg" xmlns:xlink="http://www.w3.org/1999/xlink">
    <g id="Page-1" stroke="none" stroke-width="1" fill="none" fill-rule="evenodd">
        <g id="2.1" transform="translate(-357.000000, -200.000000)" fill="#FF7977" fill-rule="nonzero">
            <g id="Group-9" transform="translate(329.000000, 173.000000)">
                <g id="Group-11" transform="translate(24.000000, 25.000000)">
                    <g id="airbnb-2">
                        <path d="M20.2412808,13.4335495 C20.2366385,13.014492 20.1390311,12.6006966 19.9869063,12.212016 C19.8695393,11.9111173 19.733246,11.6181119 19.6001666,11.3240302 C18.541102,9.00514047 17.4297172,6.71073422 16.266873,4.44258879 C16.103321,4.12566456 15.943221,3.80682684 15.7705035,3.49480597 C15.6007618,3.19043913 15.4031663,2.89743372 15.1473634,2.65920238 C14.7391977,2.26824944 14.1915248,2.03516065 13.6294489,2 L13.3706702,2 C12.7920486,2.02870257 12.2272349,2.27267442 11.8120462,2.67929418 C11.5656469,2.9138181 11.3749554,3.19976746 11.2097369,3.49564313 C11.039281,3.80252145 10.8814427,4.11633623 10.7209856,4.4282375 C9.940713,5.94998741 9.18341479,7.48351824 8.44935127,9.02830287 C8.01178431,9.95276484 7.57790739,10.8787815 7.16057612,11.8123327 C6.98750149,12.2012525 6.8309725,12.6034473 6.77205095,13.0280061 C6.66289727,13.7448528 6.81942626,14.497219 7.20057136,15.1127695 C7.52910368,15.6474745 8.02225925,16.0783718 8.59707178,16.3272471 C9.04642559,16.5221034 9.53482584,16.6089577 10.0234496,16.580906 C10.67611,16.5461042 11.3054398,16.3105039 11.857636,15.966671 C12.4736341,15.5868403 13.0004761,15.0816751 13.491013,14.5528302 C13.9471491,15.0467536 14.4353053,15.5180737 14.9988097,15.8874998 C15.5430306,16.2472386 16.163552,16.5077145 16.8162124,16.5696642 C17.5250565,16.6440517 18.2594929,16.4675309 18.8544221,16.0710766 C19.3806219,15.7207685 19.78811,15.2177075 20.0226164,14.628892 C20.173618,14.2489379 20.2479463,13.8426181 20.2412808,13.4335495 Z M13.4939888,13.1570481 C13.3160338,12.9465626 13.1592668,12.7188555 13.0017855,12.4928228 C12.736817,12.1023482 12.4958933,11.6941737 12.3021069,11.2629176 C12.1433163,10.9050922 12.0158314,10.5294473 11.9660755,10.1393315 C11.9297703,9.82982216 11.9384597,9.50691824 12.0515415,9.21307567 C12.1527199,8.93753098 12.3472206,8.69882127 12.5936198,8.54107672 C13.1806928,8.16040888 14.0174979,8.20154923 14.5494584,8.66330184 C14.8187121,8.89375956 14.9795262,9.234483 15.0199976,9.58465436 C15.0729675,10.0501144 14.9676229,10.5176075 14.8058564,10.9517339 C14.5004166,11.7573194 14.0169027,12.4794282 13.4939888,13.1570481 Z M19.2543745,14.1442969 C19.0974884,14.6883303 18.7203904,15.163597 18.2269968,15.4378261 C17.7896679,15.6835919 17.2677062,15.7677861 16.7746697,15.685027 C16.1467682,15.5868403 15.5833829,15.2520966 15.0952268,14.8569579 C14.7364599,14.5673011 14.4134032,14.2362648 14.1039162,13.895063 C14.5925485,13.2741307 15.0528509,12.6244958 15.4044757,11.9143464 C15.7113439,11.2924573 15.9445304,10.6186645 15.9666706,9.9193981 C15.9791691,9.47570419 15.8960838,9.02387789 15.6897988,8.62885875 C15.4197119,8.10109023 14.935841,7.69566642 14.3811451,7.49953218 C13.8629925,7.31356344 13.2869896,7.29693987 12.7583621,7.44834593 C12.25985,7.59006487 11.8045471,7.89108309 11.4925604,8.30834671 C11.2179502,8.6721518 11.0614213,9.11943353 11.0251161,9.57305374 C10.9692894,10.226396 11.1322462,10.8781836 11.3787644,11.4787849 C11.7452684,12.356366 12.2831806,13.1507096 12.8772765,13.8875285 C12.6093934,14.1983743 12.3186926,14.4886052 12.0076181,14.7557813 C11.5252946,15.1658693 10.9734555,15.5228575 10.3482919,15.6587163 C9.84287585,15.7726895 9.29758362,15.7160019 8.83406737,15.4804016 C8.29115581,15.2085644 7.87430068,14.6965822 7.71705749,14.1080599 C7.59683371,13.6757275 7.6234972,13.2089519 7.76645637,12.7854694 C7.88537079,12.4350588 8.04666111,12.1011523 8.19759552,11.7640167 C9.24532558,9.47011587 10.3442422,7.20016586 11.4935127,4.95588643 C11.6649208,4.62186026 11.8337103,4.28627937 12.0151172,3.95775452 C12.1631949,3.6930929 12.3354363,3.43321504 12.5788597,3.24736589 C12.8420659,3.04135357 13.1676569,2.93231209 13.5012499,2.93845447 C13.8440662,2.93438828 14.1848589,3.06127756 14.4470896,3.28264614 C14.7061064,3.49875258 14.8810856,3.79438906 15.0382097,4.08906879 C15.3934055,4.75939341 15.7345554,5.43749165 16.0758243,6.11487232 C17.0498021,8.05166358 17.9856664,10.007566 18.8828711,11.9814386 C19.0184502,12.2880778 19.163552,12.592325 19.2548506,12.9159465 C19.366385,13.3150318 19.370075,13.7460488 19.2543745,14.1442969 Z M8.41126056,18.3890484 C8.70455898,18.3223149 9.02499702,18.5166552 9.10117843,18.8091823 C9.19581002,19.1085262 9.00773717,19.4565448 8.70824902,19.5431309 C8.4156648,19.6464602 8.06820617,19.4668299 7.97131294,19.1733461 C7.87941912,18.9260257 7.97774075,18.6275189 8.19604809,18.4812554 C8.2611416,18.4367634 8.33424176,18.4054439 8.41126056,18.3890484 Z M10.3922152,20.3213294 C10.5688608,20.1284242 10.8177598,20.0075146 11.0741578,19.9690053 C11.2452073,19.9522124 11.4178321,19.9631961 11.5854065,20.0015349 C11.5832639,20.273133 11.5849304,20.5443723 11.5844542,20.81609 C11.3215093,20.7478018 11.0367813,20.7336897 10.7787168,20.8291257 C10.6385411,20.8804098 10.512196,20.9638218 10.4097131,21.0727388 C10.3875729,21.0917542 10.3929294,21.1224899 10.3909058,21.1489202 C10.3924533,21.9077444 10.3897155,22.6666882 10.3919771,23.4253928 C10.3893584,23.4545738 10.3963814,23.4874622 10.3835258,23.5148492 C10.0918938,23.521666 9.79990477,23.5161647 9.50815379,23.5172411 C9.50827282,22.3604079 9.50720152,21.2033355 9.50886799,20.0465023 C9.75455303,20.0475786 10.0003571,20.0455455 10.2461612,20.0469807 C10.3002024,20.0438712 10.3578145,20.0717366 10.3775741,20.1247168 C10.3969766,20.1881016 10.3907868,20.2556723 10.3922152,20.3213294 Z M16.6805142,20.3244388 C16.9139388,20.0817825 17.2522319,19.9624277 17.5842162,19.9617101 C17.9350077,19.9528601 18.2944888,20.0570266 18.5655279,20.2856904 C18.7457728,20.4277354 18.8757695,20.6242567 18.9363171,20.8462277 C19.0134508,21.1166298 19.0065468,21.4006657 19.0055946,21.6792002 C19.0058326,22.2920001 19.0055946,22.9049196 19.0058326,23.517839 C18.711701,23.5173607 18.4176884,23.5197525 18.1235567,23.5165235 C18.1237948,22.9040824 18.1235567,22.2916413 18.1237948,21.678961 C18.1237948,21.4513735 18.1345078,21.205847 18.0140459,21.003135 C17.9301274,20.8577087 17.7640757,20.7852347 17.6039757,20.7683719 C17.299012,20.7193384 16.9804785,20.8412047 16.7702654,21.0646064 C16.7478872,21.0870901 16.7287228,21.1155534 16.7312225,21.1495182 C16.7283657,21.2442366 16.7426497,21.3393139 16.7345554,21.434152 C16.7230092,21.5629548 16.7409832,21.6917576 16.736817,21.8209191 C16.7330477,22.0644356 16.7327303,22.3079936 16.7358648,22.5515192 C16.7192001,22.8735859 16.7482443,23.196729 16.7290799,23.518437 C16.4361386,23.5174803 16.1434353,23.5181978 15.850494,23.5180782 C15.850375,22.3606471 15.8483514,21.2034551 15.8515653,20.0461435 C16.0780859,20.0479374 16.3050827,20.0461435 16.5314843,20.0468611 C16.5900488,20.0431536 16.6540888,20.076042 16.669206,20.135839 C16.6830139,20.1973104 16.6788478,20.2612932 16.6805142,20.3244388 Z M8.08867992,23.5179586 C8.08856089,22.3606471 8.08689442,21.2034551 8.08927509,20.0462631 C8.3811451,20.0469807 8.67289608,20.0467415 8.96464707,20.0465023 C8.9669087,21.2036943 8.96524223,22.3608862 8.9654803,23.517839 C8.67325318,23.517839 8.38102607,23.5175999 8.08867992,23.5179586 Z M7.54505416,20.0466219 C7.31377217,20.0461435 7.08249018,20.0473394 6.85097012,20.0453063 C6.78978693,20.0449476 6.71170099,20.0479374 6.68182359,20.1125182 C6.65504107,20.1788929 6.66527794,20.2525628 6.66289727,20.3224057 C6.47042019,20.1165844 6.19914296,19.9943593 5.92084276,19.9678094 C5.49113201,19.9290609 5.04582788,20.0487746 4.70074991,20.3109247 C4.41649804,20.5218886 4.206404,20.826973 4.09641709,21.1630323 C4.04344721,21.3205376 4.01690275,21.4858166 4,21.650976 L4,21.8886094 C4.02463992,22.386001 4.2448518,22.8780109 4.62897274,23.1986425 C4.91870015,23.4452455 5.29103678,23.5830178 5.66825378,23.6070562 L5.86489704,23.6070562 C6.16390906,23.5868448 6.45911201,23.4625866 6.66313534,23.2387065 C6.66503988,23.3089082 6.6551601,23.3832957 6.68134746,23.4505076 C6.70860612,23.5049229 6.77288418,23.5198721 6.82871087,23.5177194 C7.06737293,23.5171215 7.3063921,23.5179586 7.54529223,23.5166431 C7.54529223,22.3602883 7.54600643,21.2034551 7.54505416,20.0466219 Z M6.63587668,22.4364697 C6.45732651,22.6512606 6.17843114,22.7782695 5.89989287,22.7694195 C5.60135698,22.7716918 5.29151292,22.6567619 5.09808356,22.4215204 C4.90941555,22.1969228 4.85239852,21.8845432 4.89525057,21.5990722 C4.92727056,21.3680165 5.04451851,21.1464087 5.22973456,21.0030155 C5.39769075,20.8697877 5.60945126,20.8011407 5.82144983,20.786311 C6.13724557,20.7585652 6.47018212,20.8984903 6.6601595,21.1546607 C6.67087252,21.5318603 6.66039757,21.9100167 6.66515891,22.2878143 C6.66206404,22.3375654 6.67575289,22.397482 6.63587668,22.4364697 Z M15.3462683,21.0396112 C15.2103321,20.7055851 14.9691703,20.4152107 14.6634924,20.2257738 C14.348649,20.028922 13.9710749,19.939944 13.6019521,19.9651783 C13.3104392,19.984433 13.0255922,20.1094087 12.8232353,20.3230037 C12.822045,19.6746844 12.8232353,19.0267239 12.8226402,18.3784045 C12.5283895,18.3785241 12.2339007,18.377089 11.93965,18.3792417 C11.9411975,20.0915892 11.9371503,21.8047739 11.9417926,23.5170019 C12.1854541,23.5175999 12.4293536,23.5181978 12.6731342,23.5175999 C12.7337222,23.5223836 12.7990715,23.4888973 12.8157362,23.4273063 C12.8277586,23.3646391 12.8233544,23.2999387 12.8237115,23.2364343 C13.0282109,23.4649785 13.3286514,23.5889975 13.6307582,23.6072954 L13.8109749,23.6072954 C14.3000833,23.582659 14.7796691,23.3523209 15.0866564,22.9661517 C15.5166052,22.4364697 15.6005237,21.6665232 15.3462683,21.0396112 Z M14.3172241,22.5003329 C14.1201047,22.6841489 13.8472801,22.7722898 13.5808832,22.7696587 C13.3029401,22.7761168 13.0252351,22.6477924 12.8491846,22.4316859 C12.8274015,22.4092022 12.8202595,22.3788254 12.822045,22.3489268 C12.8222831,21.9516354 12.8226402,21.5544636 12.822045,21.1574114 C12.9910725,20.9359232 13.2616355,20.7979117 13.5383883,20.78368 C13.8189501,20.775428 14.1133198,20.8581871 14.3192477,21.0569524 C14.5154148,21.2398117 14.6111177,21.5140408 14.604928,21.7796592 C14.6106416,22.0449188 14.51232,22.317354 14.3172241,22.5003329 Z M22.6064754,20.6100294 C22.2322343,20.1311749 21.5924295,19.8895949 20.9959529,19.9791708 C20.7468159,20.0186369 20.5107725,20.1387093 20.3366266,20.3228841 C20.3347221,19.6749236 20.3366266,19.026963 20.3356743,18.3787633 C20.0418998,18.3784045 19.7483633,18.3781653 19.4548268,18.3790025 C19.4545887,20.0914696 19.4548268,21.8044152 19.4548268,23.5171215 C19.6863469,23.5189154 19.9184621,23.5167627 20.1499821,23.5189154 C20.2108082,23.5198721 20.2868706,23.5149688 20.3180574,23.4525407 C20.345078,23.3850896 20.3349601,23.309865 20.3368647,23.2389457 C20.5398167,23.4623474 20.8337103,23.5857685 21.1310558,23.6075346 L21.3293656,23.6075346 C21.8131175,23.5811043 22.2860374,23.3542344 22.5924295,22.9739253 C22.8426378,22.6706348 22.9776217,22.2821934 23,21.8910012 L23,21.6588692 C22.9722652,21.2811912 22.8453756,20.9061443 22.6064754,20.6100294 Z M21.9189382,22.4005915 C21.6859898,22.7018489 21.2749673,22.8139085 20.9103678,22.755427 C20.6883704,22.710938 20.4730389,22.5905068 20.341745,22.402505 C20.3271039,22.2567198 20.3403166,22.1092604 20.3359124,21.9627577 C20.3390073,21.6933123 20.3292465,21.4230297 20.3403166,21.1540627 C20.4738722,20.9690507 20.6876562,20.8504134 20.90763,20.8013799 C21.3147244,20.7257965 21.7880014,20.8878464 21.9938103,21.2655244 C22.1811689,21.6150978 22.1624807,22.0822321 21.9189382,22.4005915 Z" id="Shape"></path>
                    </g>
                </g>
            </g>
        </g>
    </g>
</svg>