<svg width="5px" height="9px" viewBox="0 0 5 9" version="1.1" xmlns="http://www.w3.org/2000/svg" xmlns:xlink="http://www.w3.org/1999/xlink">
    <g id="Page-1" stroke="none" stroke-width="1" fill="none" fill-rule="evenodd">
        <g id="Group-19" transform="translate(-613.000000, -63.000000)" fill="#7956EF" fill-rule="nonzero">
            <g id="date" transform="translate(46.000000, 32.000000)">
                <g id="right-copy-2" transform="translate(554.000000, 20.930464)">
                    <g id="1454576613-icon-arrow-left-b" transform="translate(15.500000, 14.937086) rotate(180.000000) translate(-15.500000, -14.937086) translate(13.000000, 10.937086)">
                        <g id="Layer_1" transform="translate(0.000000, 0.000000)">
                            <path d="M4.35643564,0.0722599338 L4.30171965,0.117110927 L0.224075039,3.50585265 C0.0859822824,3.62047185 0,3.79240066 0,3.98426325 C0,4.17612583 0.0885878061,4.34805464 0.224075039,4.46267384 L4.29390307,7.84892384 L4.36164669,7.90623344 C4.42678478,7.94859272 4.5049505,7.97350993 4.58832725,7.97350993 C4.81500782,7.97350993 5,7.78912252 5,7.55988411 L5,7.55988411 L5,0.413625828 L5,0.413625828 C5,0.184387417 4.81500782,0 4.58832725,0 C4.50234497,0 4.42157374,0.0274089404 4.35643564,0.0722599338 Z" id="Shape"></path>
                        </g>
                    </g>
                </g>
            </g>
        </g>
    </g>
</svg>